Biological Data Science with R - 10 Predictive Analytics: Predicting and Forecasting Influenza
…
Now let’s read in the data and take a look. Notice that it correctly read in the dates as date-formatted variables. Later on, when we run functions such as median() on a date variable, it knows how to handle that properly. You’ll also notice that there are missing values throughout.

# Read in data
flu <- read_csv("data/h7n9.csv")

# View in RStudio (capital V)
# View(flu)

# Take a look
flu

# A tibble: 134 × 8
   case_id date_onset date_hospitalization date_outcome outcome gender   age
   <chr>   <date>     <date>               <date>       <chr>   <chr>  <dbl>
 1 case_1  2013-02-19 NA                   2013-03-04   Death   m         58
 2 case_2  2013-02-27 2013-03-03           2013-03-10   Death   m          7
 3 case_3  2013-03-09 2013-03-19           2013-04-09   Death   f         11
 4 case_4  2013-03-19 2013-03-27           NA           <NA>    f         18
 5 case_5  2013-03-19 2013-03-30           2013-05-15   Recover f         20
 6 case_6  2013-03-21 2013-03-28           2013-04-26   Death   f          9
 7 case_7  2013-03-20 2013-03-29           2013-04-09   Death   m         54
 8 case_8  2013-03-07 2013-03-18           2013-03-27   Death   m         14
 9 case_9  2013-03-25 2013-03-25           NA           <NA>    m         39
10 case_10 2013-03-28 2013-04-01           2013-04-03   Death   m         20
# ℹ 124 more rows
# ℹ 1 more variable: province <chr>
…
Notice how we have three different date variables: date of onset, hospitalization, and outcome. I’d like to draw a plot showing the date on the x-axis with a line connecting the three points from onset, to hospitalization, to outcome (if known) for each patient. I’ll put age on the y-axis so the individuals are separated, and I’ll do this faceted by province.

First we need to use the gather function from the tidyr package to gather up all the date_? variables into a single column we’ll call key, with the actual values being put into a new column called date.

# Gather the date columns
flugather <- flu %>%
  gather(key, date, starts_with("date_"))

# Look at the data as is
# flugather

# Better: Show the data arranged by case_id so you see the three entries
flugather %>% arrange(case_id)

# A tibble: 402 × 7
   case_id  outcome gender   age province key                  date      
   <chr>    <chr>   <chr>  <dbl> <chr>    <chr>                <date>    
 1 case_1   Death   m         58 Shanghai date_onset           2013-02-19
 2 case_1   Death   m         58 Shanghai date_hospitalization NA        
 3 case_1   Death   m         58 Shanghai date_outcome         2013-03-04
 4 case_10  Death   m         20 Shanghai date_onset           2013-03-28
 5 case_10  Death   m         20 Shanghai date_hospitalization 2013-04-01
 6 case_10  Death   m         20 Shanghai date_outcome         2013-04-03
 7 case_100 <NA>    m         30 Zhejiang date_onset           2013-04-16
 8 case_100 <NA>    m         30 Zhejiang date_hospitalization NA        
 9 case_100 <NA>    m         30 Zhejiang date_outcome         NA        
10 case_101 <NA>    f         51 Zhejiang date_onset           2013-04-13
# ℹ 392 more rows
…
# Make the assignment
flu <- flu %>%
  mutate(male = gender=="m") %>% 
  select(-gender) %>%
  mutate(hospital = !is.na(date_hospitalization)) %>%
  mutate(days_to_hospital = as.numeric(date_hospitalization - date_onset)) %>%
  mutate(days_to_outcome  = as.numeric(date_outcome - date_onset)) %>%
  mutate(early_outcome = date_outcome < median(date_outcome, na.rm=TRUE)) %>%
  select(-starts_with("date")) %>%
  mutate_if(is.logical, as.integer)

# Take a look
flu

# A tibble: 134 × 9
   case_id outcome   age province  male hospital days_to_hospital
   <chr>   <chr>   <dbl> <chr>    <int>    <int>            <dbl>
 1 case_1  Death      58 Shanghai     1        0               NA
 2 case_2  Death       7 Shanghai     1        1                4
 3 case_3  Death      11 Other        0        1               10
 4 case_4  <NA>       18 Jiangsu      0        1                8
 5 case_5  Recover    20 Jiangsu      0        1               11
 6 case_6  Death       9 Jiangsu      0        1                7
 7 case_7  Death      54 Jiangsu      1        1                9
 8 case_8  Death      14 Zhejiang     1        1               11
 9 case_9  <NA>       39 Zhejiang     1        1                0
10 case_10 Death      20 Shanghai     1        1                4
# ℹ 124 more rows
# ℹ 2 more variables: days_to_outcome <dbl>, early_outcome <int>
…
model.matrix(~0+province, data=flu)

There’s another built-in function called cbind that binds columns together. This can be dangerous to use if you’re not certain that rows are in the same order (there, it’s better to use an inner join). But here, we’re certain they’re in the same order. Try binding the results of that to the original data.

cbind(flu, model.matrix(~0+province, data=flu))

Finally, turn it into a tibble and select out the original province variable. Once you’ve run the pipeline, go back and make the assignment back to the flu object itself.

flu <- cbind(flu, model.matrix(~0+province, data=flu)) %>%
  as_tibble() %>%
  select(-province)
flu

# A tibble: 134 × 12
   case_id outcome   age  male hospital days_to_hospital days_to_outcome
   <chr>   <chr>   <dbl> <int>    <int>            <dbl>           <dbl>
 1 case_1  Death      58     1        0               NA              13
 2 case_2  Death       7     1        1                4              11
 3 case_3  Death      11     0        1               10              31
 4 case_4  <NA>       18     0        1                8              NA
 5 case_5  Recover    20     0        1               11              57
 6 case_6  Death       9     0        1                7              36
 7 case_7  Death      54     1        1                9              20
 8 case_8  Death      14     1        1               11              20
 9 case_9  <NA>       39     1        1                0              NA
10 case_10 Death      20     1        1                4               6
# ℹ 124 more rows
# ℹ 5 more variables: early_outcome <int>, provinceJiangsu <dbl>,
#   provinceOther <dbl>, provinceShanghai <dbl>, provinceZhejiang <dbl>
…
10.1.5 Imputation

We have a lot of missing data points throughout. Most of the data mining algorithms we’re going to use later can’t handle missing data, so observations with any missing data are excluded from the model completely. If we have a large dataset and only a few missing values, it’s probably better to exclude them and proceed. But since we’ve already got a pretty low number of observations, we need to try to impute missing values to maximize our use of the data we have.

There are lots of different imputation approaches. An overly simplistic method is simply a mean or median imputation – you simply plug in the mean value for that column for the missing sample’s value. This leaves the mean unchanged (good) but artificially decreases the variance (not good). We’re going to use the mice package for imputation (Multivariate Imputation by Chained Equations). This package gives you functions that can impute continuous, binary, and ordered/unordered categorical data, imputing each incomplete variable with a separate model. It tries to account for relations in the data and uncertainty about those relationships. The methods are described in the paper.

Buuren, S., & Groothuis-Oudshoorn, K. (2011). mice: Multivariate imputation by chained equations in R. Journal of statistical software, 45(3).

Let’s load the mice package, and take a look at our data again.

library(mice)
flu

# A tibble: 134 × 12
   case_id outcome   age  male hospital days_to_hospital days_to_outcome
   <chr>   <chr>   <dbl> <int>    <int>            <dbl>           <dbl>
 1 case_1  Death      58     1        0               NA              13
 2 case_2  Death       7     1        1                4              11
 3 case_3  Death      11     0        1               10              31
 4 case_4  <NA>       18     0        1                8              NA
 5 case_5  Recover    20     0        1               11              57
 6 case_6  Death       9     0        1                7              36
 7 case_7  Death      54     1        1                9              20
 8 case_8  Death      14     1        1               11              20
 9 case_9  <NA>       39     1        1                0              NA
10 case_10 Death      20     1        1                4               6
# ℹ 124 more rows
# ℹ 5 more variables: early_outcome <int>, Jiangsu <dbl>, Other <dbl>,
#   Shanghai <dbl>, Zhejiang <dbl>
…
Now, we need to put the data back together again. We do this by selecting the original two columns from the original flu data, and then using cbind() like above to mash the two datasets together side by side. Finally, we’ll turn it back into a tibble. Once you’ve run the pipeline and you like the result, assign it back to fluimp.

# Run the pipeline successfully first before you reassign!
fluimp <- flu %>%
  select(1,2) %>%
  cbind(fluimp) %>%
  as_tibble()
fluimp

# A tibble: 134 × 12
   case_id outcome   age  male hospital days_to_hospital days_to_outcome
   <chr>   <chr>   <dbl> <int>    <int>            <dbl>           <dbl>
 1 case_1  Death      58     1        0                7              13
 2 case_2  Death       7     1        1                4              11
 3 case_3  Death      11     0        1               10              31
 4 case_4  <NA>       18     0        1                8              38
 5 case_5  Recover    20     0        1               11              57
 6 case_6  Death       9     0        1                7              36
 7 case_7  Death      54     1        1                9              20
 8 case_8  Death      14     1        1               11              20
 9 case_9  <NA>       39     1        1                0              18
10 case_10 Death      20     1        1                4               6
# ℹ 124 more rows
# ℹ 5 more variables: early_outcome <int>, Jiangsu <dbl>, Other <dbl>,
#   Shanghai <dbl>, Zhejiang <dbl>
…
 [1] Recover Recover Death   Recover Death   Death   Recover Recover Death  
[10] Recover Death   Recover Recover Recover Recover Death   Recover Death  
[19] Death   Death   Recover Recover Recover Recover Recover Recover Recover
[28] Recover Death   Death   Recover Recover Recover Recover Recover Recover
[37] Recover Recover Recover Recover Recover Recover Recover Death   Recover
[46] Death   Recover Death   Recover Recover Recover Recover Recover Recover
[55] Recover Recover Recover
Levels: Death Recover

This gives you a vector of values that would be the outcome for the individuals in the unknown dataset. From here it’s pretty simple to put them back in the data with a mutate().

unknown %>%
  mutate(outcome=predict(modrf, newdata=unknown))

# A tibble: 57 × 12
   case_id outcome   age  male hospital days_to_hospital days_to_outcome
   <chr>   <fct>   <dbl> <dbl>    <dbl>            <dbl>           <dbl>
 1 case_4  Recover    18     0        1                8              46
 2 case_9  Recover    39     1        1                0              18
 3 case_15 Death      34     0        0               11              38
 4 case_16 Recover    51     1        0                3              20
 5 case_22 Death      56     1        1                4              17
 6 case_28 Death      51     1        0                6               6
 7 case_31 Recover    43     1        0                4              21
 8 case_32 Recover    46     1        0                3              20
 9 case_38 Death      28     1        0                2               7
10 case_39 Recover    38     1        1                0              18
# ℹ 47 more rows
# ℹ 5 more variables: early_outcome <dbl>, Jiangsu <dbl>, Other <dbl>,
#   Shanghai <dbl>, Zhejiang <dbl>
…
A user-provided list of important holidays.

See the prophet preprint for more.

Taylor SJ, Letham B. (2017) Forecasting at scale. PeerJ Preprints 5:e3190v2 https://doi.org/10.7287/peerj.preprints.3190v2

10.2.2 CDC ILI time series data

Here we’re going to use historical flu tracking data from the CDC’s U.S. Outpatient Influenza-like Illness Surveillance Network along with data from the National Center for Health Statistics (NCHS) Mortality Surveillance System. This contains ILI totals from CDC and flu + pneumonia death data from NCHS through the end of October 2017. It’s the ilinet.csv file. Let’s read it in, then take a look. Notice that week_start was automatically read in as a date data type. What you see as 2003-01-06 is actually represented internally as a date, not a character.

# Read in the ILI data.
ili <- read_csv("data/ilinet.csv")
ili

# A tibble: 818 × 6
   week_start ilitotal total_patients fludeaths pneumoniadeaths all_deaths
   <date>        <dbl>          <dbl>     <dbl>           <dbl>      <dbl>
 1 2003-01-06     3260         171193        NA              NA         NA
 2 2003-01-13     3729         234513        NA              NA         NA
 3 2003-01-20     4204         231550        NA              NA         NA
 4 2003-01-27     5696         235566        NA              NA         NA
 5 2003-02-03     7079         246969        NA              NA         NA
 6 2003-02-10     7782         245751        NA              NA         NA
 7 2003-02-17     7649         253656        NA              NA         NA
 8 2003-02-24     7228         241110        NA              NA         NA
 9 2003-03-03     5606         241683        NA              NA         NA
10 2003-03-10     4450         228549        NA              NA         NA
# ℹ 808 more rows
…
