Biological Data Science with R - 12 Count-Based Differential Expression Analysis of RNA-seq Data
…
First, let’s load the readr, dplyr, and ggplot2 packages. Then let’s import our data with readr’s read_csv() function (note: not read.csv()). Let’s read in the actual count data and the experimental metadata.

library(readr)
library(dplyr)
library(ggplot2)

mycounts <- read_csv("data/airway_scaledcounts.csv")
metadata <-  read_csv("data/airway_metadata.csv")

Now, take a look at each.

mycounts

# A tibble: 38,694 × 9
   ensgene     SRR1039508 SRR1039509 SRR1039512 SRR1039513 SRR1039516 SRR1039517
   <chr>            <dbl>      <dbl>      <dbl>      <dbl>      <dbl>      <dbl>
 1 ENSG000000…        723        486        904        445       1170       1097
 2 ENSG000000…          0          0          0          0          0          0
 3 ENSG000000…        467        523        616        371        582        781
 4 ENSG000000…        347        258        364        237        318        447
 5 ENSG000000…         96         81         73         66        118         94
 6 ENSG000000…          0          0          1          0          2          0
 7 ENSG000000…       3413       3916       6000       4308       6424      10723
 8 ENSG000000…       2328       1714       2640       1381       2165       2262
 9 ENSG000000…        670        372        692        448        917        807
10 ENSG000000…        426        295        531        178        740        651
# ℹ 38,684 more rows
# ℹ 2 more variables: SRR1039520 <dbl>, SRR1039521 <dbl>
…
Let’s look for differential gene expression. Note: this analysis is for demonstration only. NEVER do differential expression analysis this way!

Let’s start with an exercise.

Exercise 1

If we look at our metadata, we see that the control samples are SRR1039508, SRR1039512, SRR1039516, and SRR1039520. This bit of code will take the mycounts data, mutate() it to add a column called controlmean, then select() only the gene name and this newly created column, and assigning the result to a new object called meancounts. (Hint: mycounts |> mutate(...) |> select(...))

meancounts <- mycounts |> 
  mutate(controlmean = (SRR1039508+SRR1039512+SRR1039516+SRR1039520)/4) |> 
  select(ensgene, controlmean)
meancounts

# A tibble: 38,694 × 2
   ensgene         controlmean
   <chr>                 <dbl>
 1 ENSG00000000003      901.  
 2 ENSG00000000005        0   
 3 ENSG00000000419      520.  
 4 ENSG00000000457      340.  
 5 ENSG00000000460       97.2 
 6 ENSG00000000938        0.75
 7 ENSG00000000971     5219   
 8 ENSG00000001036     2327   
 9 ENSG00000001084      756.  
10 ENSG00000001167      528.  
# ℹ 38,684 more rows

Exercise 2

Build off of this code, mutate() it once more (prior to the select()) function, to add another column called treatedmean that takes the mean of the expression values of the treated samples. Then select() only the ensgene, controlmean and treatedmean columns, assigning it to a new object called meancounts.

# A tibble: 38,694 × 3
   ensgene         controlmean treatedmean
   <chr>                 <dbl>       <dbl>
 1 ENSG00000000003      901.         658  
 2 ENSG00000000005        0            0  
 3 ENSG00000000419      520.         546  
 4 ENSG00000000457      340.         316. 
 5 ENSG00000000460       97.2         78.8
 6 ENSG00000000938        0.75         0  
 7 ENSG00000000971     5219         6688. 
 8 ENSG00000001036     2327         1786. 
 9 ENSG00000001084      756.         578  
10 ENSG00000001167      528.         348. 
# ℹ 38,684 more rows
…
We can find candidate differentially expressed genes by looking for genes with a large change between control and dex-treated samples. We usually look at the \(log_2\) of the fold change, because this has better mathematical properties. On the absolute scale, upregulation goes from 1 to infinity, while downregulation is bounded by 0 and 1. On the log scale, upregulation goes from 0 to infinity, and downregulation goes from 0 to negative infinity. So, let’s mutate our meancounts object to add a log2foldchange column. Optionally pipe this to View().

meancounts |> mutate(log2fc=log2(treatedmean/controlmean))

# A tibble: 38,694 × 4
   ensgene         controlmean treatedmean    log2fc
   <chr>                 <dbl>       <dbl>     <dbl>
 1 ENSG00000000003      901.         658     -0.453 
 2 ENSG00000000005        0            0    NaN     
 3 ENSG00000000419      520.         546      0.0690
 4 ENSG00000000457      340.         316.    -0.102 
 5 ENSG00000000460       97.2         78.8   -0.304 
 6 ENSG00000000938        0.75         0   -Inf     
 7 ENSG00000000971     5219         6688.     0.358 
 8 ENSG00000001036     2327         1786.    -0.382 
 9 ENSG00000001084      756.         578     -0.387 
10 ENSG00000001167      528.         348.    -0.600 
# ℹ 38,684 more rows

There are a couple of “weird” results. Namely, the NaN (“not a number”) and -Inf (negative infinity) results. The NaN is returned when you divide by zero and try to take the log. The -Inf is returned when you try to take the log of zero. It turns out that there are a lot of genes with zero expression. Let’s filter our meancounts data, mutate it to add the \(log_2(Fold Change)\), and when we’re happy with what we see, let’s reassign the result of that operation back to the meancounts object. (Note: this is destructive. If you’re coding interactively like we’re doing now, before you do this it’s good practice to see what the result of the operation is prior to making the reassignment.)

# Try running the code first, prior to reassigning.
meancounts <- meancounts |> 
  filter(controlmean>0 & treatedmean>0) |> 
  mutate(log2fc=log2(treatedmean/controlmean))
meancounts

# A tibble: 21,817 × 4
   ensgene         controlmean treatedmean  log2fc
   <chr>                 <dbl>       <dbl>   <dbl>
 1 ENSG00000000003       901.        658   -0.453 
 2 ENSG00000000419       520.        546    0.0690
 3 ENSG00000000457       340.        316.  -0.102 
 4 ENSG00000000460        97.2        78.8 -0.304 
 5 ENSG00000000971      5219        6688.   0.358 
 6 ENSG00000001036      2327        1786.  -0.382 
 7 ENSG00000001084       756.        578   -0.387 
 8 ENSG00000001167       528.        348.  -0.600 
 9 ENSG00000001460       227.        186.  -0.290 
10 ENSG00000001461      3170.       2701.  -0.231 
# ℹ 21,807 more rows

A common threshold used for calling something differentially expressed is a \(log_2(FoldChange)\) of greater than 2 or less than -2. Let’s filter the dataset both ways to see how many genes are up or down-regulated.

meancounts |> filter(log2fc>2)

# A tibble: 250 × 4
   ensgene         controlmean treatedmean log2fc
   <chr>                 <dbl>       <dbl>  <dbl>
 1 ENSG00000004799      270.       1429.     2.40
 2 ENSG00000006788        2.75       19.8    2.84
 3 ENSG00000008438        0.5         2.75   2.46
 4 ENSG00000011677        0.5         2.25   2.17
 5 ENSG00000015413        0.5         3      2.58
 6 ENSG00000015592        0.5         2.25   2.17
 7 ENSG00000046653      323        2126.     2.72
 8 ENSG00000070190        0.5         3      2.58
 9 ENSG00000070388        3.5        17.5    2.32
10 ENSG00000074317        0.25        1.75   2.81
# ℹ 240 more rows

meancounts |> filter(log2fc<(-2))

# A tibble: 367 × 4
   ensgene         controlmean treatedmean log2fc
   <chr>                 <dbl>       <dbl>  <dbl>
 1 ENSG00000015520       32           6     -2.42
 2 ENSG00000019186       26.5         1.75  -3.92
 3 ENSG00000025423      295          54.2   -2.44
 4 ENSG00000028277       88.2        22     -2.00
 5 ENSG00000029559        1.25        0.25  -2.32
 6 ENSG00000049246      405          93     -2.12
 7 ENSG00000049247        1.25        0.25  -2.32
 8 ENSG00000052344        2.25        0.25  -3.17
 9 ENSG00000054179        3           0.25  -3.58
10 ENSG00000064201       30           6.5   -2.21
# ℹ 357 more rows

Exercise 6

Look up help on ?inner_join or Google around for help for using dplyr’s inner_join() to join two tables by a common column/key. You downloaded annotables_grch38.csv from the data downloads page. Load this data with read_csv() into an object called anno. Pipe it to View() or click on the object in the Environment pane to view the entire dataset. This table links the unambiguous Ensembl gene ID to things like the gene symbol, full gene name, location, Entrez gene ID, etc.

anno <- read_csv("data/annotables_grch38.csv")
anno

# A tibble: 66,531 × 9
   ensgene         entrez symbol  chr    start    end strand biotype description
   <chr>            <dbl> <chr>   <chr>  <dbl>  <dbl>  <dbl> <chr>   <chr>      
 1 ENSG00000000003   7105 TSPAN6  X     1.01e8 1.01e8     -1 protei… tetraspani…
 2 ENSG00000000005  64102 TNMD    X     1.01e8 1.01e8      1 protei… tenomoduli…
 3 ENSG00000000419   8813 DPM1    20    5.09e7 5.10e7     -1 protei… dolichyl-p…
 4 ENSG00000000457  57147 SCYL3   1     1.70e8 1.70e8     -1 protei… SCY1-like,…
 5 ENSG00000000460  55732 C1orf1… 1     1.70e8 1.70e8      1 protei… chromosome…
 6 ENSG00000000938   2268 FGR     1     2.76e7 2.76e7     -1 protei… FGR proto-…
 7 ENSG00000000971   3075 CFH     1     1.97e8 1.97e8      1 protei… complement…
 8 ENSG00000001036   2519 FUCA2   6     1.43e8 1.44e8     -1 protei… fucosidase…
 9 ENSG00000001084   2729 GCLC    6     5.35e7 5.36e7     -1 protei… glutamate-…
10 ENSG00000001167   4800 NFYA    6     4.11e7 4.11e7      1 protei… nuclear tr…
# ℹ 66,521 more rows
…
Take our newly created meancounts object, and arrange() it descending by the absolute value (abs()) of the log2fc column. The first few rows should look like this:

# A tibble: 3 × 4
  ensgene         controlmean treatedmean log2fc
  <chr>                 <dbl>       <dbl>  <dbl>
1 ENSG00000179593        0.25       130.    9.02
2 ENSG00000277196        0.5         63.8   6.99
3 ENSG00000109906       14.8        809.    5.78

Exercise 8

Continue on that pipeline, and inner_join() it to the anno data by the ensgene column. Either assign it to a temporary object or pipe the whole thing to View to take a look. What do you notice? Would you trust these results? Why or why not?

# A tibble: 21,995 × 12
   ensgene      controlmean treatedmean log2fc entrez symbol chr    start    end
   <chr>              <dbl>       <dbl>  <dbl>  <dbl> <chr>  <chr>  <dbl>  <dbl>
 1 ENSG0000017…        0.25      130.     9.02 2.47e2 ALOX1… 17    8.04e6 8.05e6
 2 ENSG0000027…        0.5        63.8    6.99 1.03e8 AC007… KI27… 1.38e5 1.62e5
 3 ENSG0000010…       14.8       809.     5.78 7.70e3 ZBTB16 11    1.14e8 1.14e8
 4 ENSG0000012…       12.8         0.25  -5.67 2.85e3 MCHR1  22    4.07e7 4.07e7
 5 ENSG0000017…        9         427.     5.57 1.02e4 ANGPT… 1     1.12e7 1.12e7
 6 ENSG0000013…        0.25       10.2    5.36 4.32e3 MMP7   11    1.03e8 1.03e8
 7 ENSG0000024…        0.25        7.25   4.86 5.85e4 LY6G5B CHR_… 3.17e7 3.17e7
 8 ENSG0000027…        0.5        13.2    4.73 4.40e5 GPR179 17    3.83e7 3.83e7
 9 ENSG0000011…       25.5         1     -4.67 8.45e2 CASQ2  1     1.16e8 1.16e8
10 ENSG0000012…       34.2       827.     4.59 7.97e4 STEAP4 7     8.83e7 8.83e7
# ℹ 21,985 more rows
# ℹ 3 more variables: strand <dbl>, biotype <chr>, description <chr>
…
Let’s look at our mycounts and metadata again.

mycounts

# A tibble: 38,694 × 9
   ensgene     SRR1039508 SRR1039509 SRR1039512 SRR1039513 SRR1039516 SRR1039517
   <chr>            <dbl>      <dbl>      <dbl>      <dbl>      <dbl>      <dbl>
 1 ENSG000000…        723        486        904        445       1170       1097
 2 ENSG000000…          0          0          0          0          0          0
 3 ENSG000000…        467        523        616        371        582        781
 4 ENSG000000…        347        258        364        237        318        447
 5 ENSG000000…         96         81         73         66        118         94
 6 ENSG000000…          0          0          1          0          2          0
 7 ENSG000000…       3413       3916       6000       4308       6424      10723
 8 ENSG000000…       2328       1714       2640       1381       2165       2262
 9 ENSG000000…        670        372        692        448        917        807
10 ENSG000000…        426        295        531        178        740        651
# ℹ 38,684 more rows
# ℹ 2 more variables: SRR1039520 <dbl>, SRR1039521 <dbl>
…
12.4.4 Getting results

Since we’ve got a fairly simple design (single factor, two groups, treated versus control), we can get results out of the object simply by calling the results() function on the DESeqDataSet that has been run through the pipeline. The help page for ?results and the vignette both have extensive documentation about how to pull out the results for more complicated models (multi-factor experiments, specific contrasts, interaction terms, time courses, etc.).

Note two things:

We’re passing the tidy=TRUE argument, which tells DESeq2 to output the results table with rownames as a first column called ‘row.’ If we didn’t do this, the gene names would be stuck in the row.names, and we’d have a hard time filtering or otherwise using that column.

This returns a regular old data frame. Try displaying it to the screen by just typing res. You’ll see that it doesn’t print as nicly as the data we read in with read_csv. We can add this “special” attribute to the raw data returned which just tells R to print it nicely.

res <- results(dds, tidy=TRUE)
res <- as_tibble(res)
res

# A tibble: 38,694 × 7
   row             baseMean log2FoldChange  lfcSE   stat  pvalue   padj
   <chr>              <dbl>          <dbl>  <dbl>  <dbl>   <dbl>  <dbl>
 1 ENSG00000000003  747.           -0.351   0.168 -2.08   0.0371  0.163
 2 ENSG00000000005    0            NA      NA     NA     NA      NA    
 3 ENSG00000000419  520.            0.206   0.101  2.04   0.0414  0.176
 4 ENSG00000000457  323.            0.0245  0.145  0.169  0.866   0.962
 5 ENSG00000000460   87.7          -0.147   0.257 -0.573  0.567   0.816
 6 ENSG00000000938    0.319        -1.73    3.49  -0.496  0.620  NA    
 7 ENSG00000000971 5760.            0.459   0.234  1.96   0.0500  0.201
 8 ENSG00000001036 2025.           -0.228   0.125 -1.83   0.0679  0.247
 9 ENSG00000001084  652.           -0.253   0.203 -1.25   0.212   0.495
10 ENSG00000001167  412.           -0.534   0.229 -2.33   0.0197  0.105
# ℹ 38,684 more rows

Either click on the res object in the environment pane or pass it to View() to bring it up in a data viewer. Why do you think so many of the adjusted p-values are missing (NA)? Try looking at the baseMean column, which tells you the average overall expression of this gene, and how that relates to whether or not the p-value was missing. Go to the DESeq2 vignette and read the section about “Independent filtering and multiple testing.”

The goal of independent filtering is to filter out those tests from the procedure that have no, or little chance of showing significant evidence, without even looking at the statistical result. Genes with very low counts are not likely to see significant differences typically due to high dispersion. This results in increased detection power at the same experiment-wide type I error [i.e., better FDRs].

Exercise 9

Using a |>, arrange the results by the adjusted p-value.

# A tibble: 38,694 × 7
   row             baseMean log2FoldChange  lfcSE  stat   pvalue     padj
   <chr>              <dbl>          <dbl>  <dbl> <dbl>    <dbl>    <dbl>
 1 ENSG00000152583     955.           4.37 0.237   18.4 8.74e-76 1.32e-71
 2 ENSG00000179094     743.           2.86 0.176   16.3 8.11e-60 6.14e-56
 3 ENSG00000116584    2278.          -1.03 0.0651 -15.9 6.93e-57 3.50e-53
 4 ENSG00000189221    2384.           3.34 0.212   15.7 9.14e-56 3.46e-52
 5 ENSG00000120129    3441.           2.97 0.204   14.6 5.26e-48 1.59e-44
 6 ENSG00000148175   13494.           1.43 0.100   14.2 7.25e-46 1.83e-42
 7 ENSG00000178695    2685.          -2.49 0.178  -14.0 2.11e-44 4.57e-41
 8 ENSG00000109906     440.           5.93 0.428   13.8 1.36e-43 2.58e-40
 9 ENSG00000134686    2934.           1.44 0.106   13.6 4.05e-42 6.82e-39
10 ENSG00000101347   14135.           3.85 0.285   13.5 1.25e-41 1.90e-38
# ℹ 38,684 more rows
…
