Biological Data Science with R - 8 Essential statistics
…
8.1.2 Import & inspect

First, let’s load the dplyr and readr libraries.

library(readr)
library(dplyr)

If you see a warning that looks like this: Error in library(dplyr) : there is no package called 'dplyr' (or similar with readr), then you don’t have the package installed correctly. See the (Appendix A)

Now, let’s actually load the data. When we load data we assign it to a variable just like any other, and we can choose a name for that data. Since we’re going to be referring to this data a lot, let’s give it a short easy name to type. I’m going to call it nh. Once we’ve loaded it we can type the name of the object itself (nh) to see it printed to the screen.

nh <- read_csv(file="data/nhanes.csv")
nh

# A tibble: 5,000 × 32
      id Gender   Age Race    Education MaritalStatus RelationshipStatus Insured
   <dbl> <chr>  <dbl> <chr>   <chr>     <chr>         <chr>              <chr>  
 1 62163 male      14 Asian   <NA>      <NA>          <NA>               Yes    
 2 62172 female    43 Black   High Sch… NeverMarried  Single             Yes    
 3 62174 male      80 White   College … Married       Committed          Yes    
 4 62174 male      80 White   College … Married       Committed          Yes    
 5 62175 male       5 White   <NA>      <NA>          <NA>               Yes    
 6 62176 female    34 White   College … Married       Committed          Yes    
 7 62178 male      80 White   High Sch… Widowed       Single             Yes    
 8 62180 male      35 White   College … Married       Committed          Yes    
 9 62186 female    17 Black   <NA>      <NA>          <NA>               Yes    
10 62190 female    15 Mexican <NA>      <NA>          <NA>               Yes    
# ℹ 4,990 more rows
# ℹ 24 more variables: Income <dbl>, Poverty <dbl>, HomeRooms <dbl>,
#   HomeOwn <chr>, Work <chr>, Weight <dbl>, Height <dbl>, BMI <dbl>,
#   Pulse <dbl>, BPSys <dbl>, BPDia <dbl>, Testosterone <dbl>, HDLChol <dbl>,
#   TotChol <dbl>, Diabetes <chr>, DiabetesAge <dbl>, nPregnancies <dbl>,
#   nBabies <dbl>, SleepHrsNight <dbl>, PhysActive <chr>, PhysActiveDays <dbl>,
#   AlcoholDay <dbl>, AlcoholYear <dbl>, SmokingStatus <chr>
…
