Biological Data Science with R - 2 Tibbles
…
First let’s load those packages.

library(readr)
library(dplyr)

If you see a warning that looks like this: Error in library(packageName) : there is no package called 'packageName', then you don’t have the package installed correctly. See the setup chapter (Appendix A).

2.2.2 read_csv()

Now, let’s actually load the data. You can get help for the import function with ?read_csv. When we load data we assign it to a variable just like any other, and we can choose a name for that data. Since we’re going to be referring to this data a lot, let’s give it a short easy name to type. I’m going to call it ydat. Once we’ve loaded it we can type the name of the object itself (ydat) to see it printed to the screen.

ydat <- read_csv(file="data/brauer2007_tidy.csv")
ydat

# A tibble: 198,430 × 7
   symbol systematic_name nutrient  rate expression bp                     mf   
   <chr>  <chr>           <chr>    <dbl>      <dbl> <chr>                  <chr>
 1 SFB2   YNL049C         Glucose   0.05      -0.24 ER to Golgi transport  mole…
 2 <NA>   YNL095C         Glucose   0.05       0.28 biological process un… mole…
 3 QRI7   YDL104C         Glucose   0.05      -0.02 proteolysis and pepti… meta…
 4 CFT2   YLR115W         Glucose   0.05      -0.33 mRNA polyadenylylatio… RNA …
 5 SSO2   YMR183C         Glucose   0.05       0.05 vesicle fusion*        t-SN…
 6 PSP2   YML017W         Glucose   0.05      -0.69 biological process un… mole…
 7 RIB2   YOL066C         Glucose   0.05      -0.55 riboflavin biosynthes… pseu…
 8 VMA13  YPR036W         Glucose   0.05      -0.75 vacuolar acidification hydr…
 9 EDC3   YEL015W         Glucose   0.05      -0.24 deadenylylation-indep… mole…
10 VPS5   YOR069W         Glucose   0.05      -0.16 protein retention in … prot…
# ℹ 198,420 more rows
…
