Biological Data Science with R - 4 Tidy Data and Advanced Data Manipulation
…
4.2 The tidyr package

The tidyr package helps with this. There are several functions in the tidyr package but the ones we’re going to use are separate() and gather(). The gather() function takes multiple columns, and gathers them into key-value pairs: it makes “wide” data longer. The separate() function separates one column into multiple columns. So, what we need to do is gather all the drug/dose data into a column with their corresponding heart rate, and then separate that column into two separate columns for the drug and dose.

Before we get started, load the tidyr package, and look at the help pages for ?gather and ?separate. Notice how each of these functions takes a data frame as input and returns a data frame as output. Thus, we can pipe from one function to the next.

library(tidyr)

4.2.1 gather()

The help for ?gather tells us that we first pass in a data frame (or omit the first argument, and pipe in the data with |>). The next two arguments are the names of the key and value columns to create, and all the relevant arguments that come after that are the columns we want to gather together. Here’s one way to do it.

hr |> gather(key=drugdose, value=hr, a_10, a_20, b_10, b_20, c_10, c_20)

# A tibble: 30 × 3
   name  drugdose    hr
   <chr> <chr>    <dbl>
 1 jon   a_10        60
 2 ann   a_10        65
 3 bill  a_10        70
 4 kate  a_10        75
 5 joe   a_10        80
 6 jon   a_20        55
 7 ann   a_20        60
 8 bill  a_20        65
 9 kate  a_20        70
10 joe   a_20        75
# ℹ 20 more rows

But that gets cumbersome to type all those names. What if we had 100 drugs and 3 doses of each? There are two other ways of specifying which columns to gather. The help for ?gather tells you how to do this:

... Specification of columns to gather. Use bare variable names. Select all variables between x and z with x:z, exclude y with -y. For more options, see the select documentation.

So, we could accomplish the same thing by doing this:

hr |> gather(key=drugdose, value=hr, a_10:c_20)

# A tibble: 30 × 3
   name  drugdose    hr
   <chr> <chr>    <dbl>
 1 jon   a_10        60
 2 ann   a_10        65
 3 bill  a_10        70
 4 kate  a_10        75
 5 joe   a_10        80
 6 jon   a_20        55
 7 ann   a_20        60
 8 bill  a_20        65
 9 kate  a_20        70
10 joe   a_20        75
# ℹ 20 more rows

But what if we didn’t know the drug names or doses, but we did know that the only other column in there that we don’t want to gather is name?

hr |> gather(key=drugdose, value=hr, -name)

# A tibble: 30 × 3
   name  drugdose    hr
   <chr> <chr>    <dbl>
 1 jon   a_10        60
 2 ann   a_10        65
 3 bill  a_10        70
 4 kate  a_10        75
 5 joe   a_10        80
 6 jon   a_20        55
 7 ann   a_20        60
 8 bill  a_20        65
 9 kate  a_20        70
10 joe   a_20        75
# ℹ 20 more rows

4.2.2 separate()

Finally, look at the help for ?separate. We can pipe in data and omit the first argument. The second argument is the column to separate; the into argument is a character vector of the new column names, and the sep argument is a character used to separate columns, or a number indicating the position to split at.

Side note, and 60-second lesson on vectors: We can create arbitrary-length vectors, which are simply variables that contain an arbitrary number of values. To create a numeric vector, try this: c(5, 42, 22908). That creates a three element vector. Try c("cat", "dog").

hr |> 
  gather(key=drugdose, value=hr, -name) |> 
  separate(drugdose, into=c("drug", "dose"), sep="_")

# A tibble: 30 × 4
   name  drug  dose     hr
   <chr> <chr> <chr> <dbl>
 1 jon   a     10       60
 2 ann   a     10       65
 3 bill  a     10       70
 4 kate  a     10       75
 5 joe   a     10       80
 6 jon   a     20       55
 7 ann   a     20       60
 8 bill  a     20       65
 9 kate  a     20       70
10 joe   a     20       75
# ℹ 20 more rows
…
# Load libraries
library(readr)
library(dplyr)
library(tidyr)

# Import data
ydat <- read_csv("data/brauer2007_tidy.csv")

# Optionally, View
# View(ydat)

# Or just display to the screen
ydat

# A tibble: 198,430 × 7
   symbol systematic_name nutrient  rate expression bp                     mf   
   <chr>  <chr>           <chr>    <dbl>      <dbl> <chr>                  <chr>
 1 SFB2   YNL049C         Glucose   0.05      -0.24 ER to Golgi transport  mole…
 2 <NA>   YNL095C         Glucose   0.05       0.28 biological process un… mole…
 3 QRI7   YDL104C         Glucose   0.05      -0.02 proteolysis and pepti… meta…
 4 CFT2   YLR115W         Glucose   0.05      -0.33 mRNA polyadenylylatio… RNA …
 5 SSO2   YMR183C         Glucose   0.05       0.05 vesicle fusion*        t-SN…
 6 PSP2   YML017W         Glucose   0.05      -0.69 biological process un… mole…
 7 RIB2   YOL066C         Glucose   0.05      -0.55 riboflavin biosynthes… pseu…
 8 VMA13  YPR036W         Glucose   0.05      -0.75 vacuolar acidification hydr…
 9 EDC3   YEL015W         Glucose   0.05      -0.24 deadenylylation-indep… mole…
10 VPS5   YOR069W         Glucose   0.05      -0.16 protein retention in … prot…
# ℹ 198,420 more rows

But let’s take a look to see what this data originally looked like.

yorig <- read_csv("data/brauer2007_messy.csv")
# View(yorig)
yorig

# A tibble: 5,536 × 40
   GID       YORF  NAME  GWEIGHT G0.05  G0.1 G0.15  G0.2 G0.25  G0.3 N0.05  N0.1
   <chr>     <chr> <chr>   <dbl> <dbl> <dbl> <dbl> <dbl> <dbl> <dbl> <dbl> <dbl>
 1 GENE1331X A_06… SFB2…       1 -0.24 -0.13 -0.21 -0.15 -0.05 -0.05  0.2   0.24
 2 GENE4924X A_06… NA::…       1  0.28  0.13 -0.4  -0.48 -0.11  0.17  0.31  0   
 3 GENE4690X A_06… QRI7…       1 -0.02 -0.27 -0.27 -0.02  0.24  0.25  0.23  0.06
 4 GENE1177X A_06… CFT2…       1 -0.33 -0.41 -0.24 -0.03 -0.03  0     0.2  -0.25
 5 GENE511X  A_06… SSO2…       1  0.05  0.02  0.4   0.34 -0.13 -0.14 -0.35 -0.09
 6 GENE2133X A_06… PSP2…       1 -0.69 -0.03  0.23  0.2   0    -0.27  0.17 -0.4 
 7 GENE1002X A_06… RIB2…       1 -0.55 -0.3  -0.12 -0.03 -0.16 -0.11  0.04  0   
 8 GENE5478X A_06… VMA1…       1 -0.75 -0.12 -0.07  0.02 -0.32 -0.41  0.11 -0.16
 9 GENE2065X A_06… EDC3…       1 -0.24 -0.22  0.14  0.06  0    -0.13  0.3   0.07
10 GENE2440X A_06… VPS5…       1 -0.16 -0.38  0.05  0.14 -0.04 -0.01  0.39  0.2 
# ℹ 5,526 more rows
# ℹ 28 more variables: N0.15 <dbl>, N0.2 <dbl>, N0.25 <dbl>, N0.3 <dbl>,
#   P0.05 <dbl>, P0.1 <dbl>, P0.15 <dbl>, P0.2 <dbl>, P0.25 <dbl>, P0.3 <dbl>,
#   S0.05 <dbl>, S0.1 <dbl>, S0.15 <dbl>, S0.2 <dbl>, S0.25 <dbl>, S0.3 <dbl>,
#   L0.05 <dbl>, L0.1 <dbl>, L0.15 <dbl>, L0.2 <dbl>, L0.25 <dbl>, L0.3 <dbl>,
#   U0.05 <dbl>, U0.1 <dbl>, U0.15 <dbl>, U0.2 <dbl>, U0.25 <dbl>, U0.3 <dbl>
…
Let’s tackle these issues one at a time, all on a |> pipeline.

4.3.1 separate() the NAME

Let’s separate() the NAME column into multiple different variables. The first row looks like this:

SFB2::YNL049C::1082129

That is, it looks like we’ve got the gene symbol, the systematic name, and some other number (that isn’t discussed in the paper). Let’s separate()!

yorig |> 
  separate(NAME, into=c("symbol", "systematic_name", "somenumber"), sep="::")

# A tibble: 5,536 × 42
   GID   YORF  symbol systematic_name somenumber GWEIGHT G0.05  G0.1 G0.15  G0.2
   <chr> <chr> <chr>  <chr>           <chr>        <dbl> <dbl> <dbl> <dbl> <dbl>
 1 GENE… A_06… SFB2   YNL049C         1082129          1 -0.24 -0.13 -0.21 -0.15
 2 GENE… A_06… NA     YNL095C         1086222          1  0.28  0.13 -0.4  -0.48
 3 GENE… A_06… QRI7   YDL104C         1085955          1 -0.02 -0.27 -0.27 -0.02
 4 GENE… A_06… CFT2   YLR115W         1081958          1 -0.33 -0.41 -0.24 -0.03
 5 GENE… A_06… SSO2   YMR183C         1081214          1  0.05  0.02  0.4   0.34
 6 GENE… A_06… PSP2   YML017W         1083036          1 -0.69 -0.03  0.23  0.2 
 7 GENE… A_06… RIB2   YOL066C         1081766          1 -0.55 -0.3  -0.12 -0.03
 8 GENE… A_06… VMA13  YPR036W         1086860          1 -0.75 -0.12 -0.07  0.02
 9 GENE… A_06… EDC3   YEL015W         1082963          1 -0.24 -0.22  0.14  0.06
10 GENE… A_06… VPS5   YOR069W         1083389          1 -0.16 -0.38  0.05  0.14
# ℹ 5,526 more rows
# ℹ 32 more variables: G0.25 <dbl>, G0.3 <dbl>, N0.05 <dbl>, N0.1 <dbl>,
#   N0.15 <dbl>, N0.2 <dbl>, N0.25 <dbl>, N0.3 <dbl>, P0.05 <dbl>, P0.1 <dbl>,
#   P0.15 <dbl>, P0.2 <dbl>, P0.25 <dbl>, P0.3 <dbl>, S0.05 <dbl>, S0.1 <dbl>,
#   S0.15 <dbl>, S0.2 <dbl>, S0.25 <dbl>, S0.3 <dbl>, L0.05 <dbl>, L0.1 <dbl>,
#   L0.15 <dbl>, L0.2 <dbl>, L0.25 <dbl>, L0.3 <dbl>, U0.05 <dbl>, U0.1 <dbl>,
#   U0.15 <dbl>, U0.2 <dbl>, U0.25 <dbl>, U0.3 <dbl>

Now, let’s select() out the stuff we don’t want.

yorig |> 
  separate(NAME, into=c("symbol", "systematic_name", "somenumber"), sep="::") |> 
  select(-GID, -YORF, -somenumber, -GWEIGHT)

# A tibble: 5,536 × 38
   symbol systematic_name G0.05  G0.1 G0.15  G0.2 G0.25  G0.3 N0.05  N0.1 N0.15
   <chr>  <chr>           <dbl> <dbl> <dbl> <dbl> <dbl> <dbl> <dbl> <dbl> <dbl>
 1 SFB2   YNL049C         -0.24 -0.13 -0.21 -0.15 -0.05 -0.05  0.2   0.24 -0.2 
 2 NA     YNL095C          0.28  0.13 -0.4  -0.48 -0.11  0.17  0.31  0    -0.63
 3 QRI7   YDL104C         -0.02 -0.27 -0.27 -0.02  0.24  0.25  0.23  0.06 -0.66
 4 CFT2   YLR115W         -0.33 -0.41 -0.24 -0.03 -0.03  0     0.2  -0.25 -0.49
 5 SSO2   YMR183C          0.05  0.02  0.4   0.34 -0.13 -0.14 -0.35 -0.09 -0.08
 6 PSP2   YML017W         -0.69 -0.03  0.23  0.2   0    -0.27  0.17 -0.4  -0.54
 7 RIB2   YOL066C         -0.55 -0.3  -0.12 -0.03 -0.16 -0.11  0.04  0    -0.63
 8 VMA13  YPR036W         -0.75 -0.12 -0.07  0.02 -0.32 -0.41  0.11 -0.16 -0.26
 9 EDC3   YEL015W         -0.24 -0.22  0.14  0.06  0    -0.13  0.3   0.07 -0.3 
10 VPS5   YOR069W         -0.16 -0.38  0.05  0.14 -0.04 -0.01  0.39  0.2   0.27
# ℹ 5,526 more rows
# ℹ 27 more variables: N0.2 <dbl>, N0.25 <dbl>, N0.3 <dbl>, P0.05 <dbl>,
#   P0.1 <dbl>, P0.15 <dbl>, P0.2 <dbl>, P0.25 <dbl>, P0.3 <dbl>, S0.05 <dbl>,
#   S0.1 <dbl>, S0.15 <dbl>, S0.2 <dbl>, S0.25 <dbl>, S0.3 <dbl>, L0.05 <dbl>,
#   L0.1 <dbl>, L0.15 <dbl>, L0.2 <dbl>, L0.25 <dbl>, L0.3 <dbl>, U0.05 <dbl>,
#   U0.1 <dbl>, U0.15 <dbl>, U0.2 <dbl>, U0.25 <dbl>, U0.3 <dbl>

4.3.2 gather() the data

Let’s gather the data from wide to long format so we get nutrient/rate (key) and expression (value) in their own columns.

yorig |> 
  separate(NAME, into=c("symbol", "systematic_name", "somenumber"), sep="::") |> 
  select(-GID, -YORF, -somenumber, -GWEIGHT) |> 
  gather(key=nutrientrate, value=expression, G0.05:U0.3)

# A tibble: 199,296 × 4
   symbol systematic_name nutrientrate expression
   <chr>  <chr>           <chr>             <dbl>
 1 SFB2   YNL049C         G0.05             -0.24
 2 NA     YNL095C         G0.05              0.28
 3 QRI7   YDL104C         G0.05             -0.02
 4 CFT2   YLR115W         G0.05             -0.33
 5 SSO2   YMR183C         G0.05              0.05
 6 PSP2   YML017W         G0.05             -0.69
 7 RIB2   YOL066C         G0.05             -0.55
 8 VMA13  YPR036W         G0.05             -0.75
 9 EDC3   YEL015W         G0.05             -0.24
10 VPS5   YOR069W         G0.05             -0.16
# ℹ 199,286 more rows
…
Now, look up some help for ?inner_join. Inner join will return a table with all rows from the first table where there are matching rows in the second table, and returns all columns from both tables. Let’s give this a try.

yjoined <- inner_join(ynogo, sn2go, by="systematic_name")
# View(yjoined)
yjoined

# A tibble: 199,296 × 7
   symbol systematic_name nutrient rate  expression bp                     mf   
   <chr>  <chr>           <chr>    <chr>      <dbl> <chr>                  <chr>
 1 SFB2   YNL049C         G        0.05       -0.24 ER to Golgi transport  mole…
 2 NA     YNL095C         G        0.05        0.28 biological process un… mole…
 3 QRI7   YDL104C         G        0.05       -0.02 proteolysis and pepti… meta…
 4 CFT2   YLR115W         G        0.05       -0.33 mRNA polyadenylylatio… RNA …
 5 SSO2   YMR183C         G        0.05        0.05 vesicle fusion*        t-SN…
 6 PSP2   YML017W         G        0.05       -0.69 biological process un… mole…
 7 RIB2   YOL066C         G        0.05       -0.55 riboflavin biosynthes… pseu…
 8 VMA13  YPR036W         G        0.05       -0.75 vacuolar acidification hydr…
 9 EDC3   YEL015W         G        0.05       -0.24 deadenylylation-indep… mole…
10 VPS5   YOR069W         G        0.05       -0.16 protein retention in … prot…
# ℹ 199,286 more rows
…
yjoined <-
  yjoined |>
  mutate(rate = as.numeric(rate)) |>
  mutate(symbol = ifelse(symbol == "NA", NA, symbol)) |>
  left_join(nutrientlookup) |>
  select(-nutrient) |>
  select(symbol:systematic_name, nutrient = nutrientname, rate:mf)

Now we can determine what rows are different between yjoined and ydat using anti_join, which will return all of the rows that do not match.

anti_join(yjoined, ydat) 

# A tibble: 866 × 7
   symbol systematic_name nutrient  rate expression bp                     mf   
   <chr>  <chr>           <chr>    <dbl>      <dbl> <chr>                  <chr>
 1 <NA>   YLL030C         Glucose   0.05         NA <NA>                   <NA> 
 2 <NA>   YOR050C         Glucose   0.05         NA <NA>                   <NA> 
 3 <NA>   YPR039W         Glucose   0.05         NA <NA>                   <NA> 
 4 <NA>   YOL013W-B       Glucose   0.05         NA <NA>                   <NA> 
 5 HXT12  YIL170W         Glucose   0.05         NA biological process un… mole…
 6 <NA>   YPR013C         Glucose   0.05         NA biological process un… mole…
 7 <NA>   YOR314W         Glucose   0.05         NA <NA>                   <NA> 
 8 <NA>   YJL064W         Glucose   0.05         NA <NA>                   <NA> 
 9 <NA>   YPR136C         Glucose   0.05         NA <NA>                   <NA> 
10 <NA>   YDR015C         Glucose   0.05         NA <NA>                   <NA> 
# ℹ 856 more rows
…
